%YAML 1.1
%TAG !u! tag:unity3d.com,2011:
--- !u!74 &7400000
AnimationClip:
  m_ObjectHideFlags: 0
  m_CorrespondingSourceObject: {fileID: 0}
  m_PrefabInstance: {fileID: 0}
  m_PrefabAsset: {fileID: 0}
  m_Name: blood2
  serializedVersion: 6
  m_Legacy: 0
  m_Compressed: 0
  m_UseHighQualityCurve: 1
  m_RotationCurves: []
  m_CompressedRotationCurves: []
  m_EulerCurves: []
  m_PositionCurves: []
  m_ScaleCurves: []
  m_FloatCurves: []
  m_PPtrCurves:
  - curve:
    - time: 0
      value: {fileID: -1954804412, guid: 1d1ff52512f74174b956bd8f3636910d, type: 3}
    - time: 0.016666668
      value: {fileID: -1392851548, guid: 1d1ff52512f74174b956bd8f3636910d, type: 3}
    - time: 0.033333335
      value: {fileID: 2019071818, guid: 1d1ff52512f74174b956bd8f3636910d, type: 3}
    - time: 0.05
      value: {fileID: 1884900407, guid: 1d1ff52512f74174b956bd8f3636910d, type: 3}
    - time: 0.06666667
      value: {fileID: 1754972829, guid: 1d1ff52512f74174b956bd8f3636910d, type: 3}
    - time: 0.083333336
      value: {fileID: 1470705341, guid: 1d1ff52512f74174b956bd8f3636910d, type: 3}
    - time: 0.1
      value: {fileID: 1933388587, guid: 1d1ff52512f74174b956bd8f3636910d, type: 3}
    - time: 0.11666667
      value: {fileID: -1761054628, guid: 1d1ff52512f74174b956bd8f3636910d, type: 3}
    - time: 0.13333334
      value: {fileID: 681576339, guid: 1d1ff52512f74174b956bd8f3636910d, type: 3}
    - time: 0.15
      value: {fileID: -2054499572, guid: 1d1ff52512f74174b956bd8f3636910d, type: 3}
    - time: 0.16666667
      value: {fileID: -1479325591, guid: 1d1ff52512f74174b956bd8f3636910d, type: 3}
    - time: 0.18333334
      value: {fileID: 277626852, guid: 1d1ff52512f74174b956bd8f3636910d, type: 3}
    - time: 0.2
      value: {fileID: 1562237981, guid: 1d1ff52512f74174b956bd8f3636910d, type: 3}
    - time: 0.21666667
      value: {fileID: -890366344, guid: 1d1ff52512f74174b956bd8f3636910d, type: 3}
    - time: 0.23333333
      value: {fileID: 1745957305, guid: 1d1ff52512f74174b956bd8f3636910d, type: 3}
    - time: 0.25
      value: {fileID: -1497965393, guid: 1d1ff52512f74174b956bd8f3636910d, type: 3}
    - time: 0.26666668
      value: {fileID: -2058345143, guid: 1d1ff52512f74174b956bd8f3636910d, type: 3}
    - time: 0.28333333
      value: {fileID: 1429679958, guid: 1d1ff52512f74174b956bd8f3636910d, type: 3}
    - time: 0.3
      value: {fileID: 507895827, guid: 1d1ff52512f74174b956bd8f3636910d, type: 3}
    - time: 0.31666666
      value: {fileID: -1853932289, guid: 1d1ff52512f74174b956bd8f3636910d, type: 3}
    - time: 0.33333334
      value: {fileID: -405235688, guid: 1d1ff52512f74174b956bd8f3636910d, type: 3}
    attribute: m_Sprite
    path: 
    classID: 212
    script: {fileID: 0}
  m_SampleRate: 60
  m_WrapMode: 0
  m_Bounds:
    m_Center: {x: 0, y: 0, z: 0}
    m_Extent: {x: 0, y: 0, z: 0}
  m_ClipBindingConstant:
    genericBindings:
    - serializedVersion: 2
      path: 0
      attribute: 0
      script: {fileID: 0}
      typeID: 212
      customType: 23
      isPPtrCurve: 1
    pptrCurveMapping:
    - {fileID: -1954804412, guid: 1d1ff52512f74174b956bd8f3636910d, type: 3}
    - {fileID: -1392851548, guid: 1d1ff52512f74174b956bd8f3636910d, type: 3}
    - {fileID: 2019071818, guid: 1d1ff52512f74174b956bd8f3636910d, type: 3}
    - {fileID: 1884900407, guid: 1d1ff52512f74174b956bd8f3636910d, type: 3}
    - {fileID: 1754972829, guid: 1d1ff52512f74174b956bd8f3636910d, type: 3}
    - {fileID: 1470705341, guid: 1d1ff52512f74174b956bd8f3636910d, type: 3}
    - {fileID: 1933388587, guid: 1d1ff52512f74174b956bd8f3636910d, type: 3}
    - {fileID: -1761054628, guid: 1d1ff52512f74174b956bd8f3636910d, type: 3}
    - {fileID: 681576339, guid: 1d1ff52512f74174b956bd8f3636910d, type: 3}
    - {fileID: -2054499572, guid: 1d1ff52512f74174b956bd8f3636910d, type: 3}
    - {fileID: -1479325591, guid: 1d1ff52512f74174b956bd8f3636910d, type: 3}
    - {fileID: 277626852, guid: 1d1ff52512f74174b956bd8f3636910d, type: 3}
    - {fileID: 1562237981, guid: 1d1ff52512f74174b956bd8f3636910d, type: 3}
    - {fileID: -890366344, guid: 1d1ff52512f74174b956bd8f3636910d, type: 3}
    - {fileID: 1745957305, guid: 1d1ff52512f74174b956bd8f3636910d, type: 3}
    - {fileID: -1497965393, guid: 1d1ff52512f74174b956bd8f3636910d, type: 3}
    - {fileID: -2058345143, guid: 1d1ff52512f74174b956bd8f3636910d, type: 3}
    - {fileID: 1429679958, guid: 1d1ff52512f74174b956bd8f3636910d, type: 3}
    - {fileID: 507895827, guid: 1d1ff52512f74174b956bd8f3636910d, type: 3}
    - {fileID: -1853932289, guid: 1d1ff52512f74174b956bd8f3636910d, type: 3}
    - {fileID: -405235688, guid: 1d1ff52512f74174b956bd8f3636910d, type: 3}
  m_AnimationClipSettings:
    serializedVersion: 2
    m_AdditiveReferencePoseClip: {fileID: 0}
    m_AdditiveReferencePoseTime: 0
    m_StartTime: 0
    m_StopTime: 0.35000002
    m_OrientationOffsetY: 0
    m_Level: 0
    m_CycleOffset: 0
    m_HasAdditiveReferencePose: 0
    m_LoopTime: 0
    m_LoopBlend: 0
    m_LoopBlendOrientation: 0
    m_LoopBlendPositionY: 0
    m_LoopBlendPositionXZ: 0
    m_KeepOriginalOrientation: 0
    m_KeepOriginalPositionY: 1
    m_KeepOriginalPositionXZ: 0
    m_HeightFromFeet: 0
    m_Mirror: 0
  m_EditorCurves: []
  m_EulerEditorCurves: []
  m_HasGenericRootTransform: 0
  m_HasMotionFloatCurves: 0
  m_Events:
  - time: 0.35
    functionName: Destroy
    data: 
    objectReferenceParameter: {fileID: 0}
    floatParameter: 0
    intParameter: 0
    messageOptions: 0
