%YAML 1.1
%TAG !u! tag:unity3d.com,2011:
--- !u!1045 &1
EditorBuildSettings:
  m_ObjectHideFlags: 0
  serializedVersion: 2
  m_Scenes:
  - enabled: 1
    path: Assets/Scenes/Level 1.unity
    guid: 0bc31fc1384c4754db11a26e97b483a2
  - enabled: 1
    path: Assets/Scenes/Level 2.unity
    guid: 89853340cc63d7b4e9a19d40e3d4d8a1
  m_configObjects: {}
